<svg width="51" height="33" viewBox="0 0 51 33" fill="none" xmlns="http://www.w3.org/2000/svg">
<path d="M49.5 16.5C49.5 20.3776 47.0693 24.0913 42.7163 26.9079C38.3784 29.7148 32.2956 31.5 25.5 31.5C18.7044 31.5 12.6216 29.7148 8.28365 26.9079C3.9307 24.0913 1.5 20.3776 1.5 16.5C1.5 12.6224 3.9307 8.90871 8.28365 6.09209C12.6216 3.28516 18.7044 1.5 25.5 1.5C32.2956 1.5 38.3784 3.28516 42.7163 6.09209C47.0693 8.90871 49.5 12.6224 49.5 16.5Z" stroke="url(#paint0_linear)" stroke-width="3"/>
<mask id="mask0" mask-type="alpha" maskUnits="userSpaceOnUse" x="8" y="7" width="36" height="19">
<line x1="12.5" y1="14.5" x2="12.5" y2="19.5" stroke="black" stroke-width="3" stroke-linecap="round"/>
<line x1="39.5001" y1="14.5" x2="39.5001" y2="19.5" stroke="black" stroke-width="3" stroke-linecap="round"/>
<line x1="1.5" y1="-1.5" x2="11.4975" y2="-1.5" transform="matrix(-0.0120722 0.999927 -0.999897 -0.0143664 16.1569 10)" stroke="black" stroke-width="3" stroke-linecap="round"/>
<line x1="1.5" y1="-1.5" x2="11.4975" y2="-1.5" transform="matrix(-0.0120722 0.999927 -0.999897 -0.0143664 33.1569 10)" stroke="black" stroke-width="3" stroke-linecap="round"/>
<line x1="23.5" y1="8.5" x2="23.5" y2="24.5" stroke="black" stroke-width="3" stroke-linecap="round"/>
<line x1="29.5" y1="8.5" x2="29.5" y2="24.5" stroke="black" stroke-width="3" stroke-linecap="round"/>
<line x1="9.00017" y1="17.0002" x2="42.0002" y2="17.0056" stroke="white" stroke-width="2" stroke-linecap="round"/>
</mask>
<g mask="url(#mask0)">
<g filter="url(#filter0_d)">
<rect x="3" y="7" width="44" height="22" fill="url(#paint1_linear)"/>
</g>
</g>
<defs>
<filter id="filter0_d" x="-1" y="7" width="52" height="30" filterUnits="userSpaceOnUse" color-interpolation-filters="sRGB">
<feFlood flood-opacity="0" result="BackgroundImageFix"/>
<feColorMatrix in="SourceAlpha" type="matrix" values="0 0 0 0 0 0 0 0 0 0 0 0 0 0 0 0 0 0 127 0"/>
<feOffset dy="4"/>
<feGaussianBlur stdDeviation="2"/>
<feColorMatrix type="matrix" values="0 0 0 0 0 0 0 0 0 0 0 0 0 0 0 0 0 0 0.25 0"/>
<feBlend mode="normal" in2="BackgroundImageFix" result="effect1_dropShadow"/>
<feBlend mode="normal" in="SourceGraphic" in2="effect1_dropShadow" result="shape"/>
</filter>
<linearGradient id="paint0_linear" x1="25.5" y1="0" x2="25.5" y2="33" gradientUnits="userSpaceOnUse">
<stop stop-color="#7A481A"/>
<stop offset="0.9999" stop-color="#2C1C24"/>
<stop offset="1" stop-color="#55211A"/>
</linearGradient>
<linearGradient id="paint1_linear" x1="25" y1="7" x2="25" y2="29" gradientUnits="userSpaceOnUse">
<stop stop-color="#7A481A"/>
<stop offset="0.9999" stop-color="#2C1C24"/>
<stop offset="1" stop-color="#55211A"/>
</linearGradient>
</defs>
</svg>
